Categories:Reading
License:GPLv2
Web Site:http://crengine.sourceforge.net
Source Code:http://sourceforge.net/p/crengine/crengine
Issue Tracker:http://sourceforge.net/tracker/?group_id=191284
Donate:http://sourceforge.net/project/project_donations.php?group_id=191284

Auto Name:Cool Reader
Summary:E-book reader
Description:
An e-book reader. Supported formats: FB2, TXT, RTF, TCR, HTML, EPUB, CHM.
Browse free books online and add your own OPDS shares.

The default dictionary app is non-free. However,
you can choose [[aarddict.android]] as a dictionary from the Dictionary
section of the Settings.
.

Repo Type:git
Repo:git://crengine.git.sourceforge.net/gitroot/crengine/crengine

#Has a conflicting (and invalid) target in build.properties - remove it
Build:3.0.39-35,60
    commit=68ad007ac1272ef322fd61cb6591618723422380
    subdir=android
    rm=android/build.properties
    buildjni=yes

Build:3.0.40-1,64
    commit=cr3.0.40-1
    subdir=android
    rm=android/build.properties
    buildjni=yes

Build:3.0.40-6,69
    commit=cr3.0.40-6
    subdir=android
    rm=android/build.properties
    buildjni=yes

Build:3.0.41-3,75
    commit=cr3.0.41-3
    subdir=android
    rm=android/build.properties
    buildjni=yes

Build:3.0.41-9,81
    commit=cr3.0.41-9
    subdir=android
    rm=android/build.properties
    buildjni=yes

#Note: 3.0.42-3 is untagged in the repo, and the source does not compile at what would
#appear to be the corresponding commit.
Build:3.0.42-6,86
    commit=cr3.0.42-6
    subdir=android
    rm=android/build.properties
    buildjni=yes

Build:3.0.43-4,94
    commit=cr3.0.43-4
    subdir=android
    rm=android/build.properties
    buildjni=yes

Build:3.0.43-6,96
    commit=cr3.0.43-6
    subdir=android
    rm=android/build.properties
    buildjni=yes

Build:3.0.44-03,103
    commit=cr3.0.44-3
    subdir=android
    rm=android/build.properties
    buildjni=yes

Build:3.0.44-09,109
    commit=cr3.0.44-9
    subdir=android
    rm=android/build.properties
    buildjni=yes

Build:3.0.45-04,114
    disable=tag points to wrong version
    commit=unknown - see disabled
    subdir=android
    rm=android/build.properties
    buildjni=yes

Build:3.0.45-09,119
    disable=tag points to wrong version
    commit=unknown - see disabled
    subdir=android
    rm=android/build.properties
    buildjni=yes

Build:3.0.45-11,121
    commit=6c42a9b65090da9640ccb6ee317bb32de24201fb
    subdir=android
    rm=android/build.properties
    buildjni=yes

Build:3.0.45-14,124
    commit=cr3.0.45-14
    subdir=android
    rm=android/build.properties
    buildjni=yes

Build:3.0.46-1,131
    commit=cr3.0.46-1
    subdir=android
    rm=android/build.properties
    buildjni=yes

Build:3.0.46-5,135
    commit=cr3.0.46-5
    subdir=android
    rm=android/build.properties
    buildjni=yes

Build:3.0.46-11,141
    commit=cr3.0.46-11
    subdir=android
    rm=android/build.properties
    buildjni=yes

Build:3.0.48-5,155
    commit=cr3.0.48-5
    subdir=android
    rm=android/build.properties
    buildjni=yes

Build:3.0.49-2,162
    commit=cr3.0.49-2
    subdir=android
    rm=android/build.properties
    buildjni=yes

Build:3.0.49-5,165
    commit=cr3.0.49-5
    subdir=android
    rm=android/build.properties
    buildjni=yes

Build:3.0.49-9,169
    commit=cr3.0.49-9
    subdir=android
    rm=android/build.properties
    buildjni=yes

Build:3.0.49-16,176
    commit=cr3.0.49-16
    subdir=android
    rm=android/build.properties
    buildjni=yes

Build:3.0.51-7,197
    commit=cr3.0.51-7
    subdir=android
    rm=android/build.properties
    buildjni=yes

Build:3.0.52-1,241
    commit=cr3.0.52-1
    subdir=android
    rm=android/build.properties
    buildjni=yes

Build:3.0.52-4,244
    commit=cr3.0.52-4
    subdir=android
    rm=android/build.properties
    buildjni=yes

Build:3.0.53-3,247
    commit=cr3.0.53-3
    subdir=android
    rm=android/build.properties
    buildjni=yes

Build:3.0.53-10,255
    commit=cr3.0.53-10
    subdir=android
    rm=android/build.properties
    buildjni=yes

Build:3.0.53-14,259
    commit=cr3.0.53-14
    subdir=android
    rm=android/build.properties
    buildjni=yes

Build:3.0.53-18,263
    commit=c555ecd66d18b218fb255733c8b33a0825992f76
    subdir=android
    rm=android/build.properties
    buildjni=yes

Build:3.0.53-19,264
    commit=cr3.0.53-19
    subdir=android
    rm=android/build.properties
    buildjni=yes

Build:3.0.54-5,275
    commit=cr3.0.54-5
    subdir=android
    rm=android/build.properties
    buildjni=yes

Build:3.0.54-9,279
    commit=cr3.0.54-9
    subdir=android
    rm=android/build.properties
    buildjni=yes

Build:3.0.54-33,303
    commit=cr3.0.54-33
    subdir=android
    rm=android/build.properties
    buildjni=yes

Build:3.0.54-38,308
    commit=cr3.0.54-38
    subdir=android
    rm=android/build.properties
    buildjni=yes

Build:3.0.54-47,447
    commit=cr3.0.54-47
    subdir=android
    rm=android/build.properties
    buildjni=yes

Build:3.0.55-5,505
    commit=cr3.0.55-5
    subdir=android
    rm=android/build.properties
    buildjni=yes

Build:3.0.55-9,509
    commit=cr3.0.55-9
    subdir=android
    rm=android/build.properties
    buildjni=yes

Build:3.0.55-14,514
    commit=cr3.0.55-14
    subdir=android
    rm=android/build.properties
    buildjni=yes

Build:3.0.55-30,530
    commit=cr3.0.55-30
    subdir=android
    rm=android/ant.properties
    buildjni=yes

Build:3.0.55-32,532
    commit=cr3.0.55-32
    subdir=android
    rm=android/ant.properties
    buildjni=yes

Build:3.0.56-5,565
    disable=builds ok but crashes at cr3.0.56-5
    commit=cr3.0.56-5
    subdir=android
    target=android-14
    rm=android/ant.properties
    buildjni=yes

Build:3.0.57-15,625
    disable=builds ok but crashes at cr3.0.57-15
    commit=cr3.0.57-15
    subdir=android
    target=android-14
    rm=android/ant.properties
    buildjni=yes

Build:3.0.57-16,626
    disable=builds ok but crashes at 2f3d5fb86df316d
    commit=2f3d5fb86df316d
    subdir=android
    target=android-14
    rm=android/ant.properties
    buildjni=yes

Build:3.1.2-27,847
    commit=cr3-3.1.2-27
    subdir=android
    target=android-16
    rm=android/ant.properties
    buildjni=yes

Build:3.1.2-38,858
    disable=ndk build errors
    commit=cr3-3.1.2-38
    subdir=android
    buildjni=yes

Build:3.1.2-39,859
    commit=cr3-3.1.2-39-market
    subdir=android
    target=android-19
    rm=android/build.properties
    buildjni=yes

Auto Update Mode:None
Update Check Mode:RepoManifest
Current Version:3.1.2-39
Current Version Code:859

